 __     __            __        __            __                  _______              __
|  \   |  \          |  \      |  \          |  \                |       \            |  \
| $$   | $$  ______  | $$____   \$$  _______ | $$  ______        | $$$$$$$\  ______  _| $$_
| $$   | $$ /      \ | $$    \ |  \ /       \| $$ /      \       | $$__/ $$ /      \|   $$ \
 \$$\ /  $$|  $$$$$$\| $$$$$$$\| $$|  $$$$$$$| $$|  $$$$$$\      | $$    $$|  $$$$$$\\$$$$$$
  \$$\  $$ | $$    $$| $$  | $$| $$| $$      | $$| $$    $$      | $$$$$$$\| $$  | $$ | $$ __
   \$$ $$  | $$$$$$$$| $$  | $$| $$| $$_____ | $$| $$$$$$$$      | $$__/ $$| $$__/ $$ | $$|  \
    \$$$    \$$     \| $$  | $$| $$ \$$     \| $$ \$$     \      | $$    $$ \$$    $$  \$$  $$
     \$      \$$$$$$$ \$$   \$$ \$$  \$$$$$$$ \$$  \$$$$$$$       \$$$$$$$   \$$$$$$    \$$$$



${Ansi.RED} :: Spring Boot${spring-boot.formatted-version} :: ${Ansi.DEFAULT}